C:\Users\User\git\projetosjava\Postapp-rest-service\src\main\java\marceliseu\java\repository\PostRepository.java
C:\Users\User\git\projetosjava\Postapp-rest-service\src\main\java\marceliseu\java\service\PostServiceImpl.java
C:\Users\User\git\projetosjava\Postapp-rest-service\src\main\java\marceliseu\java\Application.java
C:\Users\User\git\projetosjava\Postapp-rest-service\src\main\java\marceliseu\java\service\PostService.java
C:\Users\User\git\projetosjava\Postapp-rest-service\src\main\java\marceliseu\java\model\Post.java
C:\Users\User\git\projetosjava\Postapp-rest-service\src\main\java\marceliseu\java\controller\PostController.java
